\relax 
\providecommand\zref@newlabel[2]{}
\@writefile{toc}{\contentsline {section}{\numberline {1}Design history}{2}}
\@writefile{toc}{\contentsline {section}{\numberline {2}Game philosophy}{2}}
\@writefile{toc}{\contentsline {subsection}{\numberline {2.1}Board game 2.0}{2}}
\@writefile{toc}{\contentsline {subsection}{\numberline {2.2}Asylamba Mini}{2}}
\@writefile{toc}{\contentsline {section}{\numberline {3}Core game play mechanics}{3}}
\@writefile{toc}{\contentsline {subsection}{\numberline {3.1}Victory conditions}{3}}
\@writefile{lof}{\contentsline {figure}{\numberline {1}{\ignorespaces Map of the Galaxy's 36 sectors.\relax }}{3}}
\newlabel{fig:gal}{{1}{3}}
\@writefile{lot}{\contentsline {table}{\numberline {1}{\ignorespaces Details of the amount of victory points provided by sector ownership and from other sources.\relax }}{3}}
\newlabel{tab:vic}{{1}{3}}
\@writefile{toc}{\contentsline {subsection}{\numberline {3.2}Game start}{3}}
\@writefile{toc}{\contentsline {subsection}{\numberline {3.3}Sectors of the Galaxy}{3}}
\newlabel{sectors}{{3.3}{3}}
\@writefile{lot}{\contentsline {table}{\numberline {2}{\ignorespaces Summary of possible sector facilities and their outputs. The indicated start level is for capital sectors; for rebel sector it is 0 for all facilities -- however these are the defaults, and can be increased by sector bonuses. Since the technosphere and military school cannot be upgraded in the capital, the only way to obtain S or X is through bonuses or combat.\relax }}{4}}
\providecommand*\caption@xref[2]{\@setref\relax\@undefined{#1}}
\newlabel{tab:facilities}{{2}{4}}
\@writefile{lot}{\contentsline {table}{\numberline {3}{\ignorespaces Summary of technologies and their costs and uses.\relax }}{5}}
\newlabel{tab:tech}{{3}{5}}
\@writefile{toc}{\contentsline {subsection}{\numberline {3.4}Technologies}{5}}
\@writefile{toc}{\contentsline {subsection}{\numberline {3.5}Factions}{5}}
\newlabel{factions}{{3.5}{5}}
\@writefile{toc}{\contentsline {subsection}{\numberline {3.6}Fleets, missions and combat}{6}}
\newlabel{combat}{{3.6}{6}}
\@writefile{toc}{\contentsline {subsection}{\numberline {3.7}Megastructures}{7}}
\newlabel{megastructures}{{3.7}{7}}
\@writefile{toc}{\contentsline {section}{\numberline {4}User interface}{8}}
\@writefile{toc}{\contentsline {subsection}{\numberline {4.1}Platforms}{8}}
\@writefile{toc}{\contentsline {subsection}{\numberline {4.2}Player views and actions}{8}}
\@writefile{toc}{\contentsline {subsection}{\numberline {4.3}Graphics and animations}{8}}
\@writefile{toc}{\contentsline {subsection}{\numberline {4.4}Sounds and music}{8}}
\@writefile{lof}{\contentsline {figure}{\numberline {2}{\ignorespaces Main view of the galaxy with faction territories highlighted.\relax }}{9}}
\newlabel{fig:galaxymap}{{2}{9}}
\newlabel{LastPage}{{}{10}}
\xdef\lastpage@lastpage{10}
\gdef\lastpage@lastpageHy{}
