\relax 
\@writefile{toc}{\contentsline {section}{\numberline {1}Intro}{1}}
\@writefile{toc}{\contentsline {section}{\numberline {2}Galaxie}{1}}
\@writefile{lof}{\contentsline {figure}{\numberline {1}{\ignorespaces Carte des 36 secteurs de la galaxie.}}{1}}
\newlabel{fig:gal}{{1}{1}}
\@writefile{lot}{\contentsline {table}{\numberline {1}{\ignorespaces D\IeC {\'e}compte des points de victoire.}}{1}}
\newlabel{tab:vic}{{1}{1}}
\@writefile{toc}{\contentsline {section}{\numberline {3}Victoire}{1}}
\@writefile{toc}{\contentsline {section}{\numberline {4}Factions}{1}}
\@writefile{toc}{\contentsline {section}{\numberline {5}Ressources}{1}}
\@writefile{toc}{\contentsline {section}{\numberline {6}Secteur capitale}{1}}
\@writefile{lot}{\contentsline {table}{\numberline {2}{\ignorespaces Les factions.}}{2}}
\newlabel{tab:fac}{{2}{2}}
\@writefile{lot}{\contentsline {table}{\numberline {3}{\ignorespaces Les ressources.}}{2}}
\newlabel{tab:res}{{3}{2}}
\@writefile{toc}{\contentsline {section}{\numberline {7}Technologies}{2}}
\@writefile{toc}{\contentsline {section}{\numberline {8}Flottes}{2}}
\@writefile{toc}{\contentsline {section}{\numberline {9}Missions}{2}}
\@writefile{toc}{\contentsline {section}{\numberline {10}Colonisation et conqu\IeC {\^e}te}{2}}
\@writefile{lot}{\contentsline {table}{\numberline {4}{\ignorespaces Les structures pr\IeC {\'e}sentes dans le secteur capitale.}}{2}}
\newlabel{tab:cap}{{4}{2}}
\@writefile{lot}{\contentsline {table}{\numberline {5}{\ignorespaces Les technologies.}}{3}}
\newlabel{tab:tech}{{5}{3}}
\@writefile{lot}{\contentsline {table}{\numberline {6}{\ignorespaces Les types de mission.}}{3}}
\newlabel{tab:mis}{{6}{3}}
\@writefile{toc}{\contentsline {section}{\numberline {11}D\IeC {\'e}placement}{3}}
\@writefile{toc}{\contentsline {section}{\numberline {12}Combat}{3}}
\@writefile{toc}{\contentsline {section}{\numberline {13}Megastructures}{3}}
\@writefile{lot}{\contentsline {table}{\numberline {7}{\ignorespaces Les megastructures.}}{3}}
\newlabel{tab:meg}{{7}{3}}
